{
  "EDITOR_STATE": {
    "allProjectFiles": {
      "866fb901-6ff2-44e9-83c6-fb24cf53144b": {
        "id": "866fb901-6ff2-44e9-83c6-fb24cf53144b",
        "parent": null,
        "name": "Hi",
        "type": "DIRECTORY",
        "isDirectory": true,
        "children": [
          "7b1dedbc-15c9-4d56-85de-01268d70dcba"
        ],
        "isRemovable": false,
        "filePath": "Hi"
      },
      "7b1dedbc-15c9-4d56-85de-01268d70dcba": {
        "id": "7b1dedbc-15c9-4d56-85de-01268d70dcba",
        "parent": "866fb901-6ff2-44e9-83c6-fb24cf53144b",
        "name": "lambda.js",
        "type": "JS_LAMBDA",
        "isDirectory": false,
        "children": [],
        "isRemovable": true,
        "filePath": "Hi/lambda.js",
        "code": "let AWS = require('aws-sdk');\nconst cognito_idp = new AWS.CognitoIdentityServiceProvider();\n\nexports.handler = function (event, context, callback) {\n    cognito_idp.listUsers({\n        UserPoolId: \"us-east-1_HdYJb7Znp\",\n        Limit: 10\n    }, function (error, data) {\n        if (error) {\n            // implement error handling logic here\n            throw error;\n        }\n        // your logic goes within this block\n    });\n\n    callback(null, { \"message\": \"Successfully executed\" });\n}",
        "config": {
          "runtime": "nodejs8.10",
          "handler": "handler",
          "timeout": 60,
          "memory": 128,
          "layers": []
        },
        "triggers": [
          {
            "resourceName": "apigusEast1TestAPIMyLambdaput",
            "config": {}
          }
        ]
      }
    },
    "rootNode": "866fb901-6ff2-44e9-83c6-fb24cf53144b",
    "openFiles": [
      "7b1dedbc-15c9-4d56-85de-01268d70dcba"
    ],
    "currentFileId": "7b1dedbc-15c9-4d56-85de-01268d70dcba",
    "resources": {
      "apigusEast1TestAPIMyLambdaput": {
        "name": "apigusEast1TestAPIMyLambdaput",
        "type": "API_GATEWAY",
        "config": {
          "selectedRegion": "us-east-1",
          "apiMode": 1,
          "apiName": "TestAPI",
          "apiId": "0itznun7w3",
          "endpointType": "EDGE",
          "rootResourceId": "h2lelj6j7k",
          "existingResources": {
            "/MyLambda": "98nqbj",
            "/": "h2lelj6j7k",
            "/newchange/test": "k6pdhn",
            "/newchange": "q1ox7l",
            "/testWithSlash": "q4m4g1",
            "/testtwospeciallambda": "q4szm3",
            "/testtwospecialkumutest": "wey3lk"
          },
          "resourceMode": 1,
          "resourcePath": "/MyLambda",
          "resourceName": "MyLambda",
          "resourceId": "98nqbj",
          "restMethod": "PUT",
          "proxyIntegration": false,
          "enableCORS": false,
          "stageMode": 1,
          "stageName": "socks",
          "stageDeploymentId": "p1q6je",
          "mode": 1
        }
      },
      "cognitoTestCognito": {
        "name": "cognitoTestCognito",
        "type": "CognitoIdentityServiceProvider",
        "config": {
          "mode": 1,
          "name": "Test Cognito",
          "arn": "arn:aws:cognito-idp:us-east-1:318300609668:userpool/us-east-1_HdYJb7Znp",
          "userPool": {
            "Id": "us-east-1_HdYJb7Znp",
            "Name": "Test Cognito",
            "LambdaConfig": {},
            "Policies": {
              "PasswordPolicy": {
                "MinimumLength": 8,
                "RequireUppercase": true,
                "RequireLowercase": true,
                "RequireNumbers": true,
                "RequireSymbols": true
              }
            },
            "VerificationMessageTemplate": {
              "DefaultEmailOption": "CONFIRM_WITH_CODE"
            },
            "MfaConfiguration": "OFF",
            "EmailConfiguration": {},
            "SmsConfiguration": {
              "SnsCallerArn": "arn:aws:iam::318300609668:role/service-role/TestCognito-SMS-Role",
              "ExternalId": "a5aa9c3d-325f-4d4c-bd3e-06f1485e8375"
            },
            "UserPoolTags": {},
            "AdminCreateUserConfig": {
              "AllowAdminCreateUserOnly": false,
              "UnusedAccountValidityDays": 7
            },
            "SchemaAttributes": [
              {
                "Name": "sub",
                "AttributeDataType": "String",
                "DeveloperOnlyAttribute": false,
                "Mutable": false,
                "Required": true,
                "StringAttributeConstraints": {
                  "MinLength": "1",
                  "MaxLength": "2048"
                }
              },
              {
                "Name": "name",
                "AttributeDataType": "String",
                "DeveloperOnlyAttribute": false,
                "Mutable": true,
                "Required": false,
                "StringAttributeConstraints": {
                  "MinLength": "0",
                  "MaxLength": "2048"
                }
              },
              {
                "Name": "given_name",
                "AttributeDataType": "String",
                "DeveloperOnlyAttribute": false,
                "Mutable": true,
                "Required": false,
                "StringAttributeConstraints": {
                  "MinLength": "0",
                  "MaxLength": "2048"
                }
              },
              {
                "Name": "family_name",
                "AttributeDataType": "String",
                "DeveloperOnlyAttribute": false,
                "Mutable": true,
                "Required": false,
                "StringAttributeConstraints": {
                  "MinLength": "0",
                  "MaxLength": "2048"
                }
              },
              {
                "Name": "middle_name",
                "AttributeDataType": "String",
                "DeveloperOnlyAttribute": false,
                "Mutable": true,
                "Required": false,
                "StringAttributeConstraints": {
                  "MinLength": "0",
                  "MaxLength": "2048"
                }
              },
              {
                "Name": "nickname",
                "AttributeDataType": "String",
                "DeveloperOnlyAttribute": false,
                "Mutable": true,
                "Required": false,
                "StringAttributeConstraints": {
                  "MinLength": "0",
                  "MaxLength": "2048"
                }
              },
              {
                "Name": "preferred_username",
                "AttributeDataType": "String",
                "DeveloperOnlyAttribute": false,
                "Mutable": true,
                "Required": false,
                "StringAttributeConstraints": {
                  "MinLength": "0",
                  "MaxLength": "2048"
                }
              },
              {
                "Name": "profile",
                "AttributeDataType": "String",
                "DeveloperOnlyAttribute": false,
                "Mutable": true,
                "Required": false,
                "StringAttributeConstraints": {
                  "MinLength": "0",
                  "MaxLength": "2048"
                }
              },
              {
                "Name": "picture",
                "AttributeDataType": "String",
                "DeveloperOnlyAttribute": false,
                "Mutable": true,
                "Required": false,
                "StringAttributeConstraints": {
                  "MinLength": "0",
                  "MaxLength": "2048"
                }
              },
              {
                "Name": "website",
                "AttributeDataType": "String",
                "DeveloperOnlyAttribute": false,
                "Mutable": true,
                "Required": false,
                "StringAttributeConstraints": {
                  "MinLength": "0",
                  "MaxLength": "2048"
                }
              },
              {
                "Name": "email",
                "AttributeDataType": "String",
                "DeveloperOnlyAttribute": false,
                "Mutable": true,
                "Required": false,
                "StringAttributeConstraints": {
                  "MinLength": "0",
                  "MaxLength": "2048"
                }
              },
              {
                "Name": "email_verified",
                "AttributeDataType": "Boolean",
                "DeveloperOnlyAttribute": false,
                "Mutable": true,
                "Required": false
              },
              {
                "Name": "gender",
                "AttributeDataType": "String",
                "DeveloperOnlyAttribute": false,
                "Mutable": true,
                "Required": false,
                "StringAttributeConstraints": {
                  "MinLength": "0",
                  "MaxLength": "2048"
                }
              },
              {
                "Name": "birthdate",
                "AttributeDataType": "String",
                "DeveloperOnlyAttribute": false,
                "Mutable": true,
                "Required": false,
                "StringAttributeConstraints": {
                  "MinLength": "10",
                  "MaxLength": "10"
                }
              },
              {
                "Name": "zoneinfo",
                "AttributeDataType": "String",
                "DeveloperOnlyAttribute": false,
                "Mutable": true,
                "Required": false,
                "StringAttributeConstraints": {
                  "MinLength": "0",
                  "MaxLength": "2048"
                }
              },
              {
                "Name": "locale",
                "AttributeDataType": "String",
                "DeveloperOnlyAttribute": false,
                "Mutable": true,
                "Required": false,
                "StringAttributeConstraints": {
                  "MinLength": "0",
                  "MaxLength": "2048"
                }
              },
              {
                "Name": "phone_number",
                "AttributeDataType": "String",
                "DeveloperOnlyAttribute": false,
                "Mutable": true,
                "Required": false,
                "StringAttributeConstraints": {
                  "MinLength": "0",
                  "MaxLength": "2048"
                }
              },
              {
                "Name": "phone_number_verified",
                "AttributeDataType": "Boolean",
                "DeveloperOnlyAttribute": false,
                "Mutable": true,
                "Required": false
              },
              {
                "Name": "address",
                "AttributeDataType": "String",
                "DeveloperOnlyAttribute": false,
                "Mutable": true,
                "Required": false,
                "StringAttributeConstraints": {
                  "MinLength": "0",
                  "MaxLength": "2048"
                }
              },
              {
                "Name": "updated_at",
                "AttributeDataType": "Number",
                "DeveloperOnlyAttribute": false,
                "Mutable": true,
                "Required": false,
                "NumberAttributeConstraints": {
                  "MinValue": "0"
                }
              }
            ]
          }
        }
      }
    },
    "customTemplate": {
      "dialect": null,
      "definitions": null
    },
    "envVariables": [
      {
        "lambdaId": "all",
        "varKey": "SIGMA_AWS_ACC_ID",
        "varValue": null,
        "shouldPersist": false,
        "displayOnly": false,
        "editable": false
      }
    ],
    "packageJSON": {
      "dependencies": {
        "aws-sdk": {
          "name": "aws-sdk",
          "language": "javascript",
          "version": "2.176.0",
          "dev": true,
          "notRemovable": false
        }
      }
    }
  },
  "PROJECT_META": {
    "projectName": "Hi",
    "projectDescription": "",
    "projectVersion": "1.0.0",
    "projectRegion": "us-east-1",
    "platform": "AWS",
    "platformRegions": {},
    "lastSave": 1574931253476
  },
  "VCS_STATE": {
    "provider": "BitBucket",
    "repo": {
      "name": "hi",
      "url": "https://bitbucket.org/KumudikaR/hi"
    }
  }
}